Name	Element	Growth	Dungeon Level	Class	Class Level	HP	Attack	Defense	Speed	Water	Fire	Wind	Earth	Dark	Light	Weapon	Armor	Accessory
Fairy	Wind	105,531	168	Supporter	43	5,068	1,023	714	2,180	0	-206	815	0	0	0	Bursting Knives + 20, SSS (10), Fire gem lv 12	Hurricane Armor + 20, SSS (10), Fire gem lv 12	Hurricane Ring + 20, SSS (10), Fire gem lv 12
Valkyrie	Wind	104,327	168	Defender	43	18,418	246	3,478	118	139	89	525	139	0	0	Magic Pot + 20, SSS (20), Earth gem lv 12	Titanium Armor + 20, SSS (20), Earth gem lv 12	Titanium Ring + 20, SSS (20), Earth gem lv 12
Shark	Water	102,376	1	Adventurer	35	81	5	8	8	52	0	-175	272	0	0	Magic Stick + 10, SSS	Forest Armor + 10, SSS	Forest Bracelet + 10, SSS
Chocobear	Earth	102,247	1	Adventurer	35	81	5	8	5	0	0	-225	315	0	0	none	Forest Armor + 10, SSS	Forest Bracelet + 10, SSS
Ape	Fire	102,183	1	Adventurer	30	81	5	8	8	-50	52	-175	322	0	0	Magic Stick + 10, SSS	Forest Armor + 10, SSS	Forest Bracelet + 10, SSS
Otter	Water	102,100	1	Adventurer	33	81	5	8	8	52	0	-175	272	0	0	Magic Stick + 10, SSS	Forest Armor + 10, SSS	Forest Bracelet + 10, SSS
Stone	Earth	101,986	54	Adventurer	33	3,126	213	313	336	0	0	-225	499	0	0	Magic Stick + 20, SSS	Forest Armor + 10, SSS	Forest Bracelet + 10, SSS
AfkyClone	Neutral	101,921	1	Adventurer	34	81	5	8	8	1	1	-175	322	0	0	Magic Stick + 10, SSS	Forest Armor + 10, SSS	Forest Bracelet + 10, SSS
Corona	Wind	101,312	1	Adventurer	32	81	5	8	8	0	-50	-123	322	0	0	Magic Stick + 10, SSS	Forest Armor + 10, SSS	Forest Bracelet + 10, SSS
Bag	Neutral	101,259	1	Adventurer	26	75	6	8	11	1	-103	59	225	0	0	Magic Stick + 20, SSS	Hurricane Armor + 20, SSS	Forest Bracelet + 10, SSS
Raiju	Wind	100,790	1	Adventurer	21	81	6	8	9	0	-50	-123	341	0	0	Magic Stick + 20, SSS	Forest Armor + 10, SSS	Forest Bracelet + 10, SSS
Pandora	Neutral	100,373	1	None	0	81	5	8	8	1	1	-175	322	0	0	Magic Stick + 10, SSS	Forest Armor + 10, SSS	Forest Bracelet + 10, SSS
Book	Fire	94,971	157	Supporter	20	4,458	1,533	412	913	-358	793	0	0	0	0	Inferno Sword + 20, SSS (1), Fire gem lv 12	Inferno Armor + 20, SSS, Fire gem lv 12	Inferno Gloves + 20, SSS
Ghost	Neutral	91,801	167	Rogue	42	4,690	3,018	260	1,182	-31	554	125	125	0	0	Inferno Sword + 20, SSS (10), Fire gem lv 12	Inferno Armor + 20, SSS (10), Fire gem lv 12	Inferno Gloves + 20, SSS (10), Fire gem lv 12
Dog	Neutral	90,869	168	Defender	43	17,604	235	3,324	113	265	265	265	265	0	0	Magic Pot + 20, SSS (20), Earth gem lv 12	Titanium Armor + 20, SSS (20), Earth gem lv 12	Titanium Ring + 20, SSS (20), Earth gem lv 12
Dragon	Fire	87,841	158	Mage	40	3,174	2,930	162	827	-161	840	45	45	0	0	Inferno Sword + 20, SSS (10), Fire gem lv 12	Inferno Armor + 20, SSS (10), Water gem lv 15	Inferno Gloves + 20, SSS (10), Neutral gem lv 15
Egg	Wind	86,543	148	Assassin	37	3,665	1,570	413	1,940	0	-141	775	0	0	0	Bursting Knives + 20, SSS (10), Fire gem lv 12	Hurricane Armor + 20, SSS (10), Fire gem lv 12	Hurricane Ring + 20, SSS (20), Fire gem lv 12
Reindeer	Wind	85,008	147	Rogue	37	4,138	1,431	350	2,191	0	-206	773	0	0	0	Bursting Knives + 20, SSS (10), Fire gem lv 12	Hurricane Armor + 20, SSS (10), Fire gem lv 12	Hurricane Ring + 20, SSS (10), Fire gem lv 12
Panda	Earth	84,982	146	Supporter	37	6,193	920	774	1,006	0	-39	-89	693	0	0	Bursting Knives + 20, SSS (10), Fire gem lv 12	Forest Armor + 20, SSS (10), Fire gem lv 12	Forest Bracelet + 20, SSS (10), Fire gem lv 12
Chameleon	Wind	83,940	145	Assassin	36	2,657	2,445	311	1,253	-117	262	418	0	0	0	Bursting Knives + 20, SSS (10), Fire gem lv 12	Inferno Armor + 20, SSS (10), Fire gem lv 12	Inferno Gloves + 20, SSS (10), Fire gem lv 12
BHC	Neutral	83,921	136	Mage	33	1,859	3,054	138	703	23	725	296	296	0	0	Inferno Sword + 20, SSS (10), Fire gem lv 12	Inferno Armor + 20, SSS, Fire gem lv 15	Inferno Gloves + 20, SSS, Fire gem lv 12
LuckyCoin	Earth	83,155	150	Assassin	25	6,368	2,073	497	716	-78	78	-284	701	0	0	Inferno Sword + 20, SSS, Fire gem lv 12	Forest Armor + 20, SSS, Fire gem lv 12	Forest Bracelet + 20, SSS, Fire gem lv 12
Armadillo	Earth	80,890	145	Defender	37	14,040	196	1,834	94	134	134	84	474	0	0	Magic Pot + 10, SSS (20)	Titanium Armor + 20, SSS (20)	Titanium Ring + 20, SSS (20)
Undine	Water	79,892	147	Rogue	38	6,536	1,135	490	792	881	108	108	-98	0	0	Tsunami Spear + 20, SSS (10), Neutral gem lv 12	Tsunami Armor + 20, SSS (10), Neutral gem lv 12	Tsunami Necklace + 20, SSS (10), Neutral gem lv 12
Archer	Neutral	77,007	83	Assassin	20	1,941	1,378	169	620	-120	413	140	62	0	0	Hurricane Bow + 20, SSS (20), Fire gem lv 12	Inferno Armor + 20, SSS (10), Fire gem lv 12	Inferno Gloves + 20, SSS, Fire gem lv 12
Yggdrasil	Earth	76,574	1	None	0	75	5	7	7	0	0	-225	374	0	0	Magic Stick + 10, SSS	Forest Armor + 10, SSS	Forest Bracelet + 10, SSS
Raven	Wind	67,952	142	Rogue	35	3,759	905	318	1,990	0	-206	763	0	0	0	Bursting Knives + 20, SSS (10), Fire gem lv 12	Hurricane Armor + 20, SSS (10)	Hurricane Ring + 20, SSS (10)
Cupid	Wind	66,647	55	Adventurer	33	2,811	188	281	271	0	-50	-15	322	0	0	Magic Stick + 10, SSS	Forest Armor + 10, SSS	Forest Bracelet + 10, SSS
Hourglass	Wind	66,603	144	Supporter	36	3,413	479	481	2,121	0	-214	767	0	0	0	Bursting Knives + 20, SSS (8)	Hurricane Armor + 20, SSS (10)	Hurricane Ring + 20, SSS (10), Fire gem lv 12
Squirrel	Fire	64,952	160	Rogue	41	3,125	2,323	274	1,474	-167	682	78	0	0	0	Bursting Knives + 20, SSS (10), Fire gem lv 12	Inferno Armor + 20, SSS (10), Fire gem lv 12	Inferno Gloves + 20, SSS (10), Fire gem lv 12
Whale	Water	62,022	150	Defender	36	13,445	189	1,908	91	489	139	139	89	0	0	Magic Pot + 20, SSS (20)	Titanium Armor + 20, SSS (20)	Titanium Ring + 20, SSS (20)
Mole	Earth	61,751	1	Adventurer	34	71	5	7	8	0	0	-225	393	0	0	Magic Stick + 20, SSS	Forest Armor + 10, SSS	Forest Bracelet + 10, SSS
Robot	Neutral	61,719	1	Blacksmith	40	85	9	8	2	1	53	-175	264	0	0	Magic Hammer + 20, SSS	Forest Armor + 10, SSS	Forest Bracelet + 10, SSS
Hedgehog	Fire	61,551	1	Adventurer	33	70	5	7	7	-50	52	-175	322	0	0	Magic Stick + 10, SSS	Forest Armor + 10, SSS	Forest Bracelet + 10, SSS
Cat	Neutral	61,174	56	Assassin	30	2,284	349	196	248	120	16	-159	279	0	0	Ego Sword + 20, SSS	Forest Armor + 10, SSS	Forest Bracelet + 10, SSS
GoldDragon	Neutral	60,684	16	Alchemist	36	598	55	84	60	39	39	-39	156	0	0	Magic Pot + 10, SSS	Forest Armor + 10, SSS	Alchemist Cape, SSS
Nightmare	Fire	59,943	1	Adventurer	29	70	5	7	8	-50	52	-175	341	0	0	Magic Stick + 20, SSS	Forest Armor + 10, SSS	Forest Bracelet + 10, SSS
Slime	Water	56,938	157	Mage	39	3,203	2,461	245	582	676	78	0	-167	0	0	Inferno Sword + 20, SSS (10), Fire gem lv 12	Tsunami Armor + 20, SSS (10), Fire gem lv 12	Tsunami Necklace + 20, SSS (10), Fire gem lv 12
Cloud	Wind	56,877	1	Adventurer	27	69	5	7	7	0	-50	-123	322	0	0	Magic Stick + 10, SSS	Forest Armor + 10, SSS	Forest Bracelet + 10, SSS
FSM	Wind	56,768	1	Adventurer	27	69	5	7	7	0	-50	-123	322	0	0	Magic Stick + 10, SSS	Forest Armor + 10, SSS	Forest Bracelet + 10, SSS
Balrog	Fire	56,351	89	None	0	2,239	490	204	347	-180	423	0	0	0	0	none	none	Inferno Gloves + 20, SSS
LivingDraw	Neutral	55,905	1	Adventurer	29	69	5	7	7	1	1	-175	322	0	0	Magic Stick + 10, SSS	Forest Armor + 10, SSS	Forest Bracelet + 10, SSS
Firefox	Fire	55,648	158	Blacksmith	40	5,832	1,545	659	245	-167	717	0	0	0	0	none	Inferno Armor + 20, SSS (10), Fire gem lv 12	Inferno Gloves + 20, SSS (10), Fire gem lv 12
Goat	Earth	55,470	1	Adventurer	27	69	5	7	7	0	0	-225	374	0	0	Magic Stick + 10, SSS	Forest Armor + 10, SSS	Forest Bracelet + 10, SSS
Elephant	Fire	55,315	159	Defender	40	14,308	195	2,762	94	89	507	139	139	0	0	Magic Pot + 20, SSS (20), Earth gem lv 12	Titanium Armor + 20, SSS (20), Earth gem lv 12	Titanium Ring + 20, SSS (20), Earth gem lv 12
Rabbit	Earth	55,179	154	Mage	39	3,858	2,273	337	823	0	0	-206	787	0	0	Forest Axe + 20, SSS (10), Fire gem lv 12	Forest Armor + 20, SSS (10), Fire gem lv 12	Forest Bracelet + 20, SSS (10), Fire gem lv 12
Elf	Wind	55,131	1	Blacksmith	33	82	8	8	2	0	2	-123	263	0	0	Magic Hammer + 20, SSS	Forest Armor + 10, SSS	Forest Bracelet + 10, SSS
Eagle	Wind	54,877	1	Adventurer	32	69	5	7	7	0	-50	-123	322	0	0	Magic Stick + 10, SSS	Forest Armor + 10, SSS	Forest Bracelet + 10, SSS
MysteriousEgg	Fire	53,719	91	None	0	3,326	278	360	251	-3	279	47	47	0	0	none	none	Titanium Ring + 10, SSS (20)
Santa	Fire	53,543	158	Supporter	40	2,954	1,281	432	1,132	-167	678	78	0	0	0	Bursting Knives + 20, SSS (10), Fire gem lv 12	Inferno Armor + 20, SSS (10), Fire gem lv 12	Inferno Gloves + 20, SSS (10), Fire gem lv 12
Bottle	Fire	53,265	1	Alchemist	27	50	4	7	7	-36	-38	72	160	0	0	Magic Pot + 10, SSS	Hurricane Armor + 20, SSS	Forest Bracelet + 10, SSS
Wizard	Wind	52,769	45	Mage	28	1,017	314	87	165	78	-76	-61	237	0	0	Ego Sword + 20, SSS	Forest Armor + 10, SSS	Forest Bracelet + 10, SSS
Rose	Earth	52,729	1	Alchemist	29	54	4	7	5	14	14	-212	329	0	0	Magic Pot + 10, SSS	Forest Armor + 10, SSS	Forest Bracelet + 10, SSS
BeachBall	Water	52,466	1	Adventurer	29	68	5	7	7	52	0	-175	272	0	0	Magic Stick + 10, SSS	Forest Armor + 10, SSS	Forest Bracelet + 10, SSS
Anteater	Earth	51,854	1	Blacksmith	39	81	8	8	2	0	52	-225	315	0	0	Magic Hammer + 20, SSS	Forest Armor + 10, SSS	Forest Bracelet + 10, SSS
Pumpkin	Fire	51,683	1	Adventurer	32	68	5	7	7	-50	52	-175	322	0	0	Magic Stick + 10, SSS	Forest Armor + 10, SSS	Forest Bracelet + 10, SSS
Hydra	Water	51,182	1	Adventurer	27	68	5	7	7	52	0	-175	272	0	0	Magic Stick + 10, SSS	Forest Armor + 10, SSS	Forest Bracelet + 10, SSS
Mouse	Earth	51,020	18	Defender	30	1,279	34	132	22	78	-26	-251	323	0	0	Ego Sword + 20, SSS	Forest Armor + 10, SSS	Forest Bracelet + 10, SSS
Tanuki	Neutral	50,615	18	Supporter	28	817	59	88	72	91	-12	-188	251	0	0	Ego Sword + 20, SSS	Forest Armor + 10, SSS	Forest Bracelet + 10, SSS
Pegasus	Wind	50,614	1	Blacksmith	38	81	8	8	2	0	2	-123	263	0	0	Magic Hammer + 20, SSS	Forest Armor + 10, SSS	Forest Bracelet + 10, SSS
Penguin	Water	50,532	161	Assassin	41	4,810	1,821	481	1,050	723	-39	78	-167	0	0	Bursting Knives + 20, SSS (10), Fire gem lv 12	Tsunami Armor + 20, SSS (10), Fire gem lv 12	Tsunami Necklace + 20, SSS (10), Fire gem lv 12
Seal	Water	50,028	1	Alchemist	28	49	5	7	5	79	27	-51	94	0	0	Magic Pot + 10, SSS	Forest Armor + 10, SSS	Alchemist Cape, SSS
Question	Neutral	49,980	23	Alchemist	33	964	107	89	107	95	-113	50	137	0	0	Ego Sword + 20, SSS	Hurricane Armor + 20, SSS	Forest Bracelet + 10, SSS
Turtle	Earth	49,971	112	None	0	7,098	337	841	206	58	58	-89	479	0	0	Magic Pot + 20, SSS	Titanium Armor + 20, SSS (20)	Forest Bracelet + 10, SSS
Doughnut	Earth	49,935	52	Rogue	29	2,157	287	150	350	78	-130	-18	274	0	0	Ego Sword + 20, SSS	Hurricane Armor + 20, SSS	Forest Bracelet + 10, SSS
Snake	Water	49,910	1	Alchemist	35	45	5	7	7	79	-77	183	-23	0	0	Magic Pot + 10, SSS	Hurricane Armor + 20, SSS	Alchemist Cape, SSS
GodPower	Fire	49,859	1	Adventurer	22	62	4	7	8	-50	-52	58	205	0	0	Magic Stick + 10, SSS	Hurricane Armor + 20, SSS	Forest Bracelet + 10, SSS
Phoenix	Fire	49,851	17	Alchemist	32	608	56	85	61	-23	111	-51	144	0	0	Magic Pot + 10, SSS	Forest Armor + 10, SSS	Alchemist Cape, SSS
Ufo	Neutral	49,832	17	Adventurer	27	828	55	83	80	13	13	-163	334	0	0	Magic Stick + 10, SSS	Forest Armor + 10, SSS	Forest Bracelet + 10, SSS
Octopus	Water	49,830	1	Blacksmith	36	82	8	8	2	52	52	-181	221	0	0	Magic Hammer + 20, SSS	Forest Armor + 12, SSS	Forest Bracelet + 10, SSS
Camel	Fire	49,806	24	Adventurer	29	1,065	77	116	140	-50	-6	58	205	0	0	Magic Stick + 10, SSS	Hurricane Armor + 20, SSS	Forest Bracelet + 10, SSS
Frog	Water	49,792	153	Supporter	39	5,209	929	651	924	707	-39	78	-167	0	0	Bursting Knives + 20, SSS (10), Fire gem lv 12	Tsunami Armor + 20, SSS (10), Fire gem lv 12	Tsunami Necklace + 20, SSS (10), Fire gem lv 12
Vaccina	Earth	49,789	1	Alchemist	32	45	5	7	7	27	-77	133	79	0	0	Magic Pot + 10, SSS	Hurricane Armor + 20, SSS	Alchemist Cape, SSS
Crab	Water	49,761	66	Blacksmith	31	4,097	333	379	111	260	-129	34	72	0	0	Ego Sword + 20, SSS (1)	Hurricane Armor + 20, SSS	Forest Bracelet + 10, SSS
Bug	Fire	49,752	1	Adventurer	27	78	6	7	4	28	26	-201	237	0	0	Ego Sword + 20, SSS	Forest Armor + 10, SSS	Forest Bracelet + 10, SSS
Bee	Wind	49,748	8	Alchemist	38	294	27	41	30	27	-23	15	144	0	0	Magic Pot + 10, SSS	Forest Armor + 10, SSS	Alchemist Cape, SSS
Succubus	Fire	46,994	1	None	0	61	4	6	6	-50	52	-135	239	0	0	Journeying Stick + 10, SS	Forest Armor + 10, A	Forest Bracelet + 10, A
Gray	Neutral	33,987	1	None	0	0	0	0	0	1	1	-175	264	0	0	none	Forest Armor + 10, SSS	Forest Bracelet + 10, SSS
Mimic	Neutral	28,333	1	None	0	54	4	5	6	1	1	-120	210	0	0	Magic Stick + 10, SSS	Forest Armor + 10, A	Tree Bracelet + 2, S
GrayChild1	Neutral	0	1	None	0	34	3	3	3	1	1	1	1	0	0	none	none	none	
GrayChild2	Neutral	0	1	None	0	34	3	3	3	1	1	1	1	0	0	none	none	none	
Nothing	Neutral	-32,697	1	None	0	28	3	3	3	1	1	1	1	0	0	none	none	none	
